Data Management with Tidyverse
…
Nonetheless, it is a good practice to tell R not to include the `NA`s. The argument `na.rm = TRUE` tells R to remove the `NA`s when calculating the mean and standard deviation of `GDP.Growth`. 

Otherwise, you will receive `NaN` (not-a-number) as an output.
]

.pull-right[

```r
mutate(WDI.data,  
       GDP.Growth.mean = mean(GDP.Growth, na.rm = TRUE), 
       GDP.Growth.sd = sd(GDP.Growth, na.rm = TRUE) )
```

```
## # A tibble: 5,425 × 12
##    Code  Country  Year GDP.Growth GDP.PerCap  Gini Child.Mortality
##    <chr> <chr>   <dbl>      <dbl>      <dbl> <dbl>           <dbl>
##  1 ABW   Aruba    1995       2.55     26705.    NA              NA
##  2 ABW   Aruba    1996       1.19     26088.    NA              NA
##  3 ABW   Aruba    1997       7.05     27191.    NA              NA
##  4 ABW   Aruba    1998       1.99     27152.    NA              NA
##  5 ABW   Aruba    1999       1.24     26954.    NA              NA
##  6 ABW   Aruba    2000       7.62     28417.    NA              NA
##  7 ABW   Aruba    2001      -2.97     26966.    NA              NA
##  8 ABW   Aruba    2002      -3.27     25508.    NA              NA
##  9 ABW   Aruba    2003       1.98     25469.    NA              NA
## 10 ABW   Aruba    2004       7.91     27006.    NA              NA
## # ℹ 5,415 more rows
## # ℹ 5 more variables: Poverty.Under.2 <dbl>, Income.Group <chr>, Region <chr>,
## #   GDP.Growth.mean <dbl>, GDP.Growth.sd <dbl>
```
…
